…
``` r
library(readxl)

wheel_data = read_excel("./hw2data/HealthyHarborWaterWheelTotals2018-7-28.xlsx", 
      sheet = 1, range = cell_cols("A:N")) %>%
      janitor::clean_names() %>% # import data and clean names
    filter(!is.na(dumpster)) %>% # filter out non dumpster specific data 
    mutate(sports_balls = as.integer(round(sports_balls))) # rounding sports balls 
   
wheel_data
```

    ## # A tibble: 285 x 14
    ##    dumpster month  year date                weight_tons volume_cubic_ya~
    ##       <dbl> <chr> <dbl> <dttm>                    <dbl>            <dbl>
    ##  1        1 May    2014 2014-05-16 00:00:00        4.31               18
    ##  2        2 May    2014 2014-05-16 00:00:00        2.74               13
    ##  3        3 May    2014 2014-05-16 00:00:00        3.45               15
    ##  4        4 May    2014 2014-05-17 00:00:00        3.1                15
    ##  5        5 May    2014 2014-05-17 00:00:00        4.06               18
    ##  6        6 May    2014 2014-05-20 00:00:00        2.71               13
    ##  7        7 May    2014 2014-05-21 00:00:00        1.91                8
    ##  8        8 May    2014 2014-05-28 00:00:00        3.7                16
    ##  9        9 June   2014 2014-06-05 00:00:00        2.52               14
    ## 10       10 June   2014 2014-06-11 00:00:00        3.76               18
    ## # ... with 275 more rows, and 8 more variables: plastic_bottles <dbl>,
    ## #   polystyrene <dbl>, cigarette_butts <dbl>, glass_bottles <dbl>,
    ## #   grocery_bags <dbl>, chip_bags <dbl>, sports_balls <int>,
    ## #   homes_powered <dbl>
…
data("brfss_smart2010") # import data set 


filtered_brfss = brfss_smart2010 %>%
  janitor::clean_names() %>% # clean names 
  filter(topic == "Overall Health") %>%
  select(-class, -topic, -question, -sample_size, -(confidence_limit_low:geo_location)) %>%
  spread(key = "response", value = "data_value") %>%  # making rows into columns
  janitor::clean_names() %>% # clean new columns 
  mutate(proportion_yv = excellent + very_good) # create proportion column

filtered_brfss  
```

    ## # A tibble: 2,125 x 9
    ##     year locationabbr locationdesc excellent  fair  good  poor very_good
    ##    <int> <chr>        <chr>            <dbl> <dbl> <dbl> <dbl>     <dbl>
    ##  1  2002 AK           AK - Anchor~      27.9   8.6  23.8   5.9      33.7
    ##  2  2002 AL           AL - Jeffer~      18.5  12.1  32.7   5.9      30.9
    ##  3  2002 AR           AR - Pulask~      24.1  12.5  29.9   4.2      29.3
    ##  4  2002 AZ           AZ - Marico~      21.6  10.3  26.9   4.6      36.6
    ##  5  2002 AZ           AZ - Pima C~      26.6   7.5  31.9   3.9      30.1
    ##  6  2002 CA           CA - Los An~      22.7  14.3  28.7   4.5      29.8
    ##  7  2002 CO           CO - Adams ~      21.2  14.4  29     4.2      31.2
    ##  8  2002 CO           CO - Arapah~      25.5   8    29.3   2.1      35.2
    ##  9  2002 CO           CO - Denver~      22.2  11.1  36.6   3        27.1
    ## 10  2002 CO           CO - Jeffer~      23.4  11.4  26.3   2.4      36.6
    ## # ... with 2,115 more rows, and 1 more variable: proportion_yv <dbl>

``` r
distinct(filtered_brfss, locationdesc) # distinct locations
```

    ## # A tibble: 404 x 1
    ##    locationdesc               
    ##    <chr>                      
    ##  1 AK - Anchorage Municipality
    ##  2 AL - Jefferson County      
    ##  3 AR - Pulaski County        
    ##  4 AZ - Maricopa County       
    ##  5 AZ - Pima County           
    ##  6 CA - Los Angeles County    
    ##  7 CO - Adams County          
    ##  8 CO - Arapahoe County       
    ##  9 CO - Denver County         
    ## 10 CO - Jefferson County      
    ## # ... with 394 more rows

``` r
# There are 404 distinct locations represented in this data set.
distinct(filtered_brfss, locationabbr) # distinct states
```

    ## # A tibble: 51 x 1
    ##    locationabbr
    ##    <chr>       
    ##  1 AK          
    ##  2 AL          
    ##  3 AR          
    ##  4 AZ          
    ##  5 CA          
    ##  6 CO          
    ##  7 CT          
    ##  8 DC          
    ##  9 DE          
    ## 10 FL          
    ## # ... with 41 more rows

``` r
# All states are represented in addition to D.C.

filtered_brfss %>%
  group_by(locationabbr) %>%
  summarize(n = n()) %>% # take count of number of state
  arrange(-n) # put the count in descending order to show which state was observed most 
```

    ## # A tibble: 51 x 2
    ##    locationabbr     n
    ##    <chr>        <int>
    ##  1 NJ             146
    ##  2 FL             122
    ##  3 NC             115
    ##  4 WA              97
    ##  5 MD              90
    ##  6 MA              79
    ##  7 TX              71
    ##  8 NY              65
    ##  9 SC              63
    ## 10 CO              59
    ## # ... with 41 more rows
…
